...
!         
interface Ethernet0/0
 switchport trunk allowed vlan 10,20
 switchport trunk encapsulation dot1q
 switchport mode trunk
!         
interface Ethernet0/1
 switchport trunk encapsulation dot1q
 switchport mode trunk
!         
interface Ethernet0/2
 switchport trunk allowed vlan 10,20
 switchport trunk encapsulation dot1q
 switchport mode trunk
!         
interface Ethernet0/3
 switchport access vlan 10
 switchport mode access
!         
interface Ethernet1/0
 switchport access vlan 20
 switchport mode access
!         
interface Ethernet1/1
 switchport access vlan 10
 switchport mode access
!         
interface Ethernet1/2
 switchport access vlan 20
 switchport mode access
!         
interface Ethernet1/3
!         
interface Ethernet2/0
!         
interface Ethernet2/1
!         
interface Ethernet2/2
!         
interface Ethernet2/3
!         
interface Ethernet3/0
!         
interface Ethernet3/1
!         
interface Ethernet3/2
!         
interface Ethernet3/3
!         
interface Vlan1
 no ip address
 shutdown 
!         
ip forward-protocol nd
!         
!         
no ip http server
no ip http secure-server
!         
!         
!         
!         
!         
control-plane
!         
!         
line con 0
 exec-timeout 0 0
 privilege level 15
 logging synchronous
line aux 0
 exec-timeout 0 0
 privilege level 15
 logging synchronous
line vty 0 4
 login    
!         
!         
end       

